<?xml version="1.0" encoding="UTF-8" standalone="no"?>
<svg width="21px" height="12px" viewBox="0 0 21 12" version="1.1" xmlns="http://www.w3.org/2000/svg" xmlns:xlink="http://www.w3.org/1999/xlink" xmlns:sketch="http://www.bohemiancoding.com/sketch/ns">
    <!-- Generator: Sketch 3.3.2 (12043) - http://www.bohemiancoding.com/sketch -->
    <title>vk-icon</title>
    <desc>Created with Sketch.</desc>
    <defs></defs>
    <g id="Page-1" stroke="none" stroke-width="1" fill="none" fill-rule="evenodd" sketch:type="MSPage">
        <path d="M11.5065065,11.9945865 C12.0385846,11.9945865 12.2570075,11.6392736 12.2499797,11.1946869 C12.222836,9.51860013 12.8743363,8.61684792 14.0499702,9.79263462 C15.3513921,11.0939547 15.6204358,11.9945865 17.1998135,11.9945865 L19.9975524,11.9945865 C22.1984857,11.9945865 20.2371607,9.78586142 18.6866072,8.34678569 C17.2123923,6.97839567 17.1431835,6.94610839 18.4126746,5.29899867 C19.9888949,3.25481649 22.0484568,0.621009462 20.2260587,0.621009462 L16.7453981,0.621009462 C16.0700642,0.621009462 16.0213787,1.01558653 15.7814648,1.58198898 C14.9121527,3.63324991 13.2586772,6.29119601 12.6305011,5.8853133 C11.9735517,5.46074064 12.2743734,4.02079915 12.3247395,1.52515521 C12.3380313,0.866066878 12.3346701,0.413281034 11.3272968,0.179478334 C8.57681755,-0.458882992 6.1934152,0.796807093 7.16702444,0.978104765 C8.54015061,1.23416226 8.40845516,3.96722467 8.08817958,5.25031311 C7.53048554,7.48445044 5.43420574,3.4805219 4.56031022,1.48706233 C4.3500864,1.00738739 4.28581739,0.621009462 3.53338113,0.621009462 L0.687567864,0.621009462 C0.1389387,0.621009462 -0.130054082,0.872279888 0.0614797793,1.38179764 C0.25301364,1.8913154 2.45496554,6.81701019 5.05831863,9.62722596 C7.46779525,12.2281346 9.84936424,11.9945865 11.5065065,11.9945865 L11.5065065,11.9945865 Z" id="vk-icon" fill="#151101" sketch:type="MSShapeGroup"></path>
    </g>
</svg>